<?xml version="1.0" encoding="utf-8"?>
<!-- Generator: Adobe Illustrator 16.0.4, SVG Export Plug-In . SVG Version: 6.00 Build 0)  -->
<!DOCTYPE svg PUBLIC "-//W3C//DTD SVG 1.1//EN" "http://www.w3.org/Graphics/SVG/1.1/DTD/svg11.dtd">
<svg version="1.1" id="Calque_1" xmlns="http://www.w3.org/2000/svg" xmlns:xlink="http://www.w3.org/1999/xlink" x="0px" y="0px"
	 width="24px" height="24px" viewBox="0 0 24 24" enable-background="new 0 0 24 24" xml:space="preserve">
<a xlink:href="http://www.ensci.com/twitter/" >
	<path fill="#FFFFFF" d="M21.5,0h-19C1.125,0,0,1.125,0,2.5v19C0,22.875,1.125,24,2.5,24h19c1.375,0,2.5-1.125,2.5-2.5v-19
		C24,1.125,22.875,0,21.5,0 M19.143,8.908c0.006,0.153,0.01,0.309,0.01,0.464c0,4.738-3.605,10.2-10.2,10.2
		c-2.025,0-3.909-0.593-5.495-1.611c0.28,0.033,0.566,0.052,0.855,0.052c1.679,0,3.225-0.573,4.452-1.534
		c-1.569-0.027-2.892-1.064-3.349-2.488C5.635,14.033,5.86,14.05,6.09,14.05c0.327,0,0.644-0.045,0.945-0.125
		c-1.64-0.327-2.875-1.777-2.875-3.515c0-0.016,0-0.028,0-0.044c0.483,0.268,1.036,0.431,1.623,0.446
		C4.822,10.171,4.189,9.073,4.189,7.83c0-0.657,0.176-1.273,0.486-1.802c1.768,2.168,4.409,3.596,7.389,3.745
		c-0.062-0.263-0.093-0.536-0.093-0.818c0-1.978,1.605-3.583,3.585-3.583c1.031,0,1.963,0.435,2.617,1.132
		c0.815-0.161,1.584-0.459,2.275-0.871c-0.267,0.839-0.836,1.54-1.576,1.983c0.726-0.084,1.416-0.277,2.059-0.563
		C20.45,7.771,19.843,8.401,19.143,8.908"/>
</a>
</svg>
